Uso de R para la demografía social - Sesión 14
…
poblacion2022 %>% 
  mutate(tipo_hog = case_when(
  parent1d_2 >  0 & parent1d_3 >0 & parent1d_5==0 & parent1d_6==0 ~ 1, # pareja con hijes
  parent1d_2 >  0 & parent1d_3==0 & parent1d_5==0 & parent1d_6==0 ~ 2, # pareja sin hijes
  parent1d_2 == 0 & parent1d_3 >0 & parent1d_5==0 & parent1d_6==0 ~ 3, # mono con hijes
  parent1d_2 == 0 & parent1d_3 >0 & parent1d_5==0 & parent1d_6> 0 ~ 4, # mono con hijes + fam
  parent1d_2 >  0 & parent1d_3==0 & parent1d_5==0 & parent1d_6 >0 ~ 5, # pareja sin hijes + fam
  parent1d_2 >  0 & parent1d_3 >0 & parent1d_5==0 & parent1d_6 >0 ~ 6, # pareja con hijes + fam
  parent1d_2 == 0 & parent1d_3==0 & parent1d_5==0 & parent1d_6==0 ~ 7, # uni
  parent1d_5 >  0 ~ 8 #compuesto 
  )) %>% 
  filter(is.na(tipo_hog)) %>% 
  select(starts_with("parent1d"))

# A tibble: 8,723 × 8
   parent1d parent1d_1 parent1d_2 parent1d_3 parent1d_4 parent1d_5 parent1d_6
   <chr>         <int>      <int>      <int>      <int>      <int>      <int>
 1 1                 1          0          0          0          0          1
 2 6                 1          0          0          0          0          1
 3 1                 1          0          0          0          0          1
 4 6                 1          0          0          0          0          1
 5 1                 1          0          0          0          0          4
 6 6                 1          0          0          0          0          4
 7 6                 1          0          0          0          0          4
 8 6                 1          0          0          0          0          4
 9 6                 1          0          0          0          0          4
10 1                 1          0          0          0          0          1
# ℹ 8,713 more rows
# ℹ 1 more variable: parent1d_7 <int>
…
Tiempo

En esta encuesta también tenemos una bateria de tiempo. Vamos a hacer algunas sumatorias de tiempo

poblacion2022 %>% 
  select(hor_1:usotiempo8)

# A tibble: 309,684 × 24
   hor_1 min_1 usotiempo1 hor_2 min_2 usotiempo2 hor_3 min_3 usotiempo3 hor_4
   <dbl> <dbl> <chr>      <dbl> <dbl> <chr>      <dbl> <dbl> <chr>      <dbl>
 1    NA    NA "9"           NA    NA "9"           NA    NA "9"           NA
 2    48     0 ""            NA    NA "9"           NA    NA "9"            2
 3    NA    NA "9"           35     0 ""            NA    NA "9"           NA
 4    40     0 ""            NA    NA "9"           NA    NA "9"           NA
 5    12     0 ""             6     0 ""            NA    NA "9"           NA
 6    68     0 ""            NA    NA "9"           NA    NA "9"           NA
 7    NA    NA "9"           NA    NA "9"           15     0 ""            NA
 8    50     0 ""             7     0 ""            NA    NA "9"           NA
 9    NA    NA "9"           NA    NA "9"           NA    NA "9"           NA
10    NA    NA "9"           NA    NA "9"           NA    NA "9"           NA
# ℹ 309,674 more rows
# ℹ 14 more variables: min_4 <dbl>, usotiempo4 <chr>, hor_5 <dbl>, min_5 <dbl>,
#   usotiempo5 <chr>, hor_6 <dbl>, min_6 <dbl>, usotiempo6 <chr>, hor_7 <dbl>,
#   min_7 <dbl>, usotiempo7 <chr>, hor_8 <dbl>, min_8 <dbl>, usotiempo8 <chr>
…
Este crecimiento es el más utilizado.

Podemos graficar los diferentes crecimientos, será más fácil si cambiamos el formato

censos %>% 
  select(c(ano, ra, rg, r)) %>% 
  pivot_longer(-ano, names_to = "tipo", values_to = "crecimiento") 

# A tibble: 39 × 3
     ano tipo  crecimiento
   <dbl> <chr>       <dbl>
 1  1900 ra       NA      
 2  1900 rg       NA      
 3  1900 r        NA      
 4  1910 ra        0.0114 
 5  1910 rg        0.0109 
 6  1910 r         0.0108 
 7  1921 ra       -0.00496
 8  1921 rg       -0.00508
 9  1921 r        -0.00510
10  1930 ra        0.0180 
# ℹ 29 more rows
…
