Uso de R para la demografía social - Sesión 5
…
Selecciones y filtros avanzados

En prácticas pasadas ya revisamos las selecciones y los filtros pero avanzaremos.

Selecciones con “ayudadores” y Wildcards

Tenemos a veces variables que inician o terminan igual porque son parte de una sección, podemos elegir las variables de esa forma:

concentrado2022 %>% 
  select(starts_with("ing"))

# A tibble: 90,102 × 2
   ing_cor ingtrab
     <dbl>   <dbl>
 1  56124.  35707.
 2 108049.  66766.
 3 133853.  93082.
 4 105054.      0 
 5  24212.  22255.
 6 121650.  40255.
 7  60261.  33359.
 8  95978.      0 
 9 158399.  80951.
10  61343.  31182.
# ℹ 90,092 more rows

Que tenga la cadena en cualquier parte del nombre

concentrado2022 %>% 
  select(matches("ing"))

# A tibble: 90,102 × 4
   percep_ing ing_cor ingtrab otros_ing
        <dbl>   <dbl>   <dbl>     <dbl>
 1          3  56124.  35707.         0
 2          2 108049.  66766.         0
 3          2 133853.  93082.         0
 4          2 105054.      0          0
 5          1  24212.  22255.         0
 6          4 121650.  40255.         0
 7          2  60261.  33359.         0
 8          1  95978.      0          0
 9          3 158399.  80951.         0
10          2  61343.  31182.         0
# ℹ 90,092 more rows

Que tenga la cadena en la parte final

concentrado2022 %>% 
  select(matches("hog"))

# A tibble: 90,102 × 4
   foliohog clase_hog transf_hog ero_nm_hog
   <chr>        <dbl>      <dbl>      <dbl>
 1 1                3         0          0 
 2 1                2      9000.         0 
 3 1                2         0          0 
 4 1                3         0          0 
 5 2                1         0       3214.
 6 1                2         0          0 
 7 1                2         0          0 
 8 1                1      2443.         0 
 9 1                2         0          0 
10 1                2      1286.         0 
# ℹ 90,092 more rows
Filtros con %in% y operadores de negación

Si queremos seleccionar varios elementos en un solo comando, podemos utilizar %in% seguido de un vector de las opciones a señalar.

Supongamos que nos queremos quedar con los datos de dos entidades. Con esta excusa también aprenderemos a usar una función para extraer de las cadenas

concentrado2022 %<>% 
  mutate(ent=stringr::str_sub(folioviv, start=1, end=2 ))

Más del paquete {stringr} aquí

concentrado2022 %>% 
  filter(ent%in%c("09", "15"))

# A tibble: 6,112 × 129
   folioviv  foliohog ubica_geo tam_loc est_socio est_dis upm   factor clase_hog
   <chr>     <chr>    <chr>     <chr>   <chr>     <chr>   <chr>  <dbl>     <dbl>
 1 09000069… 1        09002     1       3         141     0003…   1578         3
 2 09000069… 1        09002     1       3         141     0003…   1578         2
 3 09000069… 1        09002     1       3         141     0003…   1578         3
 4 09000069… 1        09002     1       3         141     0003…   1578         3
 5 09000069… 1        09002     1       3         141     0003…   1578         3
 6 09000069… 1        09002     1       3         141     0003…   1578         2
 7 09000092… 1        09002     1       3         141     0003…   1474         2
 8 09000092… 1        09002     1       3         141     0003…   1474         3
 9 09000092… 1        09002     1       3         141     0003…   1474         1
10 09000092… 1        09002     1       3         141     0003…   1474         2
# ℹ 6,102 more rows
# ℹ 120 more variables: sexo_jefe <dbl>, edad_jefe <dbl>, educa_jefe <dbl>,
#   tot_integ <dbl>, hombres <dbl>, mujeres <dbl>, mayores <dbl>,
#   menores <dbl>, p12_64 <dbl>, p65mas <dbl>, ocupados <dbl>,
#   percep_ing <dbl>, perc_ocupa <dbl>, ing_cor <dbl>, ingtrab <dbl>,
#   trabajo <dbl>, sueldos <dbl>, horas_extr <dbl>, comisiones <dbl>,
#   aguinaldo <dbl>, indemtrab <dbl>, otra_rem <dbl>, remu_espec <dbl>, …

Si queremos negar esta relación o casi cualquier otro filtro:

concentrado2022 %>% 
  filter(!ent%in%c("09", "15"))

# A tibble: 83,990 × 129
   folioviv  foliohog ubica_geo tam_loc est_socio est_dis upm   factor clase_hog
   <chr>     <chr>    <chr>     <chr>   <chr>     <chr>   <chr>  <dbl>     <dbl>
 1 01000050… 1        01001     1       4         003     0000…    206         3
 2 01000050… 1        01001     1       4         003     0000…    206         2
 3 01000050… 1        01001     1       4         003     0000…    206         2
 4 01000120… 1        01001     1       3         002     0000…    167         3
 5 01000120… 2        01001     1       3         002     0000…    167         1
 6 01000120… 1        01001     1       3         002     0000…    167         2
 7 01000120… 1        01001     1       3         002     0000…    167         2
 8 01000193… 1        01001     1       4         003     0000…    212         1
 9 01000193… 1        01001     1       4         003     0000…    212         2
10 01000193… 1        01001     1       4         003     0000…    212         2
# ℹ 83,980 more rows
# ℹ 120 more variables: sexo_jefe <dbl>, edad_jefe <dbl>, educa_jefe <dbl>,
#   tot_integ <dbl>, hombres <dbl>, mujeres <dbl>, mayores <dbl>,
#   menores <dbl>, p12_64 <dbl>, p65mas <dbl>, ocupados <dbl>,
#   percep_ing <dbl>, perc_ocupa <dbl>, ing_cor <dbl>, ingtrab <dbl>,
#   trabajo <dbl>, sueldos <dbl>, horas_extr <dbl>, comisiones <dbl>,
#   aguinaldo <dbl>, indemtrab <dbl>, otra_rem <dbl>, remu_espec <dbl>, …
…
is.nan(vector)

[1] FALSE FALSE FALSE FALSE FALSE FALSE  TRUE FALSE FALSE

is.infinite(vector)

[1] FALSE FALSE FALSE FALSE FALSE FALSE FALSE  TRUE  TRUE

Como son condiciones, funcionan como filtros, esto es útil para quitarnos algunos valores perdidos de análisis

concentrado2022 %>% 
  filter(!is.na(ing_cor)) # no hay perdidos, hay 0

# A tibble: 90,102 × 129
   folioviv  foliohog ubica_geo tam_loc est_socio est_dis upm   factor clase_hog
   <chr>     <chr>    <chr>     <chr>   <chr>     <chr>   <chr>  <dbl>     <dbl>
 1 01000050… 1        01001     1       4         003     0000…    206         3
 2 01000050… 1        01001     1       4         003     0000…    206         2
 3 01000050… 1        01001     1       4         003     0000…    206         2
 4 01000120… 1        01001     1       3         002     0000…    167         3
 5 01000120… 2        01001     1       3         002     0000…    167         1
 6 01000120… 1        01001     1       3         002     0000…    167         2
 7 01000120… 1        01001     1       3         002     0000…    167         2
 8 01000193… 1        01001     1       4         003     0000…    212         1
 9 01000193… 1        01001     1       4         003     0000…    212         2
10 01000193… 1        01001     1       4         003     0000…    212         2
# ℹ 90,092 more rows
# ℹ 120 more variables: sexo_jefe <dbl>, edad_jefe <dbl>, educa_jefe <dbl>,
#   tot_integ <dbl>, hombres <dbl>, mujeres <dbl>, mayores <dbl>,
#   menores <dbl>, p12_64 <dbl>, p65mas <dbl>, ocupados <dbl>,
#   percep_ing <dbl>, perc_ocupa <dbl>, ing_cor <dbl>, ingtrab <dbl>,
#   trabajo <dbl>, sueldos <dbl>, horas_extr <dbl>, comisiones <dbl>,
#   aguinaldo <dbl>, indemtrab <dbl>, otra_rem <dbl>, remu_espec <dbl>, …
…
[1] "a_b"

paste("a","b")

[1] "a b"

paste0("a","b")

[1] "ab"

concentrado2022 %>% 
  dplyr::rename_at(vars(clase_hog, sexo_jefe), ~ paste0(.x, "_2022")) %>% # sufijo
  select(clase_hog_2022, sexo_jefe_2022)

# A tibble: 90,102 × 2
   clase_hog_2022 sexo_jefe_2022
            <dbl>          <dbl>
 1              3              2
 2              2              1
 3              2              1
 4              3              1
 5              1              1
 6              2              1
 7              2              2
 8              1              2
 9              2              2
10              2              1
# ℹ 90,092 more rows

concentrado2022 %>% 
  dplyr::rename_at(vars(clase_hog, sexo_jefe), ~ paste0("desc_", .x)) %>% # prefijo
  select(starts_with("desc"))

# A tibble: 90,102 × 2
   desc_clase_hog desc_sexo_jefe
            <dbl>          <dbl>
 1              3              2
 2              2              1
 3              2              1
 4              3              1
 5              1              1
 6              2              1
 7              2              2
 8              1              2
 9              2              2
10              2              1
# ℹ 90,092 more rows
…
concentrado2022 %>% 
  dplyr::summarise(nombre_indicador=mean(ing_cor, na.rm=T)) # las funciones también pueden tener atributos

# A tibble: 1 × 1
  nombre_indicador
             <dbl>
1           61490.

Funciona con group_by() y con .by()

concentrado2022 %>% 
  dplyr::summarise(nombre_indicador=mean(ing_cor, na.rm=T), .by=ent) # las funciones también pueden tener atributos

# A tibble: 32 × 2
   ent   nombre_indicador
   <chr>            <dbl>
 1 01              73162.
 2 02              80341.
 3 03              87777.
 4 04              57921.
 5 05              69761.
 6 06              63841.
 7 07              40765.
 8 08              73981.
 9 09              77909.
10 10              53608.
# ℹ 22 more rows
…
